O;AFARMS400;OC1;034;034;034;2;GX;GX;GX;1;1;2
O;AFARMS400;OC1;034;034;034;2;GX;GX;GX;1;1;2
O;arttestOJ;OC1;034;034;034;2;GX;GX;GX;4;1;2
O;arttestOJ;OC1;034;034;034;2;GX;GX;GX;4;1;2
O;AFAFS200;OC1;034;034;034;2;GX;GX;GX;1;1;2
O;AFAFS200;OC1;034;034;034;2;GX;GX;GX;1;1;2
O;LEX08A0476;OC1;045;045;045;2;GX;GX;GX;1;1;2
O;LEX08A0476;OC1;045;045;045;2;GX;GX;GX;1;1;2
O;3MPFNHP005;OC1;085;085;085;2;GX;GX;GX;1;1;2
O;3MPFNHP005;OC1;085;085;085;2;GX;GX;GX;1;1;2
O;test2OJ;DY1;045;045;045;2;GX;GX;GX;4;1;3
